^C:\_CODE\OPENGL3\OPENGL3\OPENGL\DISPLAY.CPP
/c /I.\INCLUDE /ZI /nologo /W3 /WX- /diagnostics:classic /sdl- /Od /Oy- /D _MBCS /Gm /EHsc /RTC1 /MDd /GS /fp:precise /Zc:wchar_t /Zc:forScope /Zc:inline /Fo"DEBUG\\" /Fd"DEBUG\VC141.PDB" /Gd /TP /analyze- C:\_CODE\OPENGL3\OPENGL3\OPENGL\DISPLAY.CPP
^C:\_CODE\OPENGL3\OPENGL3\OPENGL\MAIN.CPP
/c /I.\INCLUDE /ZI /nologo /W3 /WX- /diagnostics:classic /sdl- /Od /Oy- /D _MBCS /Gm /EHsc /RTC1 /MDd /GS /fp:precise /Zc:wchar_t /Zc:forScope /Zc:inline /Fo"DEBUG\\" /Fd"DEBUG\VC141.PDB" /Gd /TP /analyze- C:\_CODE\OPENGL3\OPENGL3\OPENGL\MAIN.CPP
^C:\_CODE\OPENGL3\OPENGL3\OPENGL\MESH.CPP
/c /I.\INCLUDE /ZI /nologo /W3 /WX- /diagnostics:classic /sdl- /Od /Oy- /D _MBCS /Gm /EHsc /RTC1 /MDd /GS /fp:precise /Zc:wchar_t /Zc:forScope /Zc:inline /Fo"DEBUG\\" /Fd"DEBUG\VC141.PDB" /Gd /TP /analyze- C:\_CODE\OPENGL3\OPENGL3\OPENGL\MESH.CPP
^C:\_CODE\OPENGL3\OPENGL3\OPENGL\SHADER.CPP
/c /I.\INCLUDE /ZI /nologo /W3 /WX- /diagnostics:classic /sdl- /Od /Oy- /D _MBCS /Gm /EHsc /RTC1 /MDd /GS /fp:precise /Zc:wchar_t /Zc:forScope /Zc:inline /Fo"DEBUG\\" /Fd"DEBUG\VC141.PDB" /Gd /TP /analyze- C:\_CODE\OPENGL3\OPENGL3\OPENGL\SHADER.CPP
^C:\_CODE\OPENGL3\OPENGL3\OPENGL\TEXTURE.CPP
/c /I.\INCLUDE /ZI /nologo /W3 /WX- /diagnostics:classic /sdl- /Od /Oy- /D _MBCS /Gm /EHsc /RTC1 /MDd /GS /fp:precise /Zc:wchar_t /Zc:forScope /Zc:inline /Fo"DEBUG\\" /Fd"DEBUG\VC141.PDB" /Gd /TP /analyze- C:\_CODE\OPENGL3\OPENGL3\OPENGL\TEXTURE.CPP
^C:\_CODE\OPENGL3\OPENGL3\OPENGL\STB_IMAGE.C
/c /I.\INCLUDE /ZI /nologo /W3 /WX- /diagnostics:classic /sdl- /Od /Oy- /D _MBCS /Gm /EHsc /RTC1 /MDd /GS /fp:precise /Zc:wchar_t /Zc:forScope /Zc:inline /Fo"DEBUG\\" /Fd"DEBUG\VC141.PDB" /Gd /TC /analyze- C:\_CODE\OPENGL3\OPENGL3\OPENGL\STB_IMAGE.C
^C:\_CODE\OPENGL\DISPLAY.CPP
/c /IC:\_CODE\OPENGL\PACKAGES\RAPIDJSON.TEMPRELEASE.0.0.2.20\BUILD\NATIVE\../..//BUILD/NATIVE/INCLUDE/ /IC:\_CODE\OPENGL\PACKAGES\RAPIDJSON.TEMPRELEASE.0.0.2.20\BUILD\NATIVE\../../BUILD/NATIVE/INCLUDE/ /IC:\_CODE\OPENGL\PACKAGES\RAPIDJSON.1.0.2\BUILD\NATIVE\../..//BUILD/NATIVE/INCLUDE/ /I.\INCLUDE /ZI /nologo /W3 /WX- /diagnostics:classic /sdl- /Od /Oy- /D _MBCS /Gm- /EHsc /RTC1 /MDd /GS /fp:precise /Zc:wchar_t /Zc:forScope /Zc:inline /Fo"DEBUG\\" /Fd"DEBUG\VC141.PDB" /Gd /TP /analyze- /FC C:\_CODE\OPENGL\DISPLAY.CPP
^C:\_CODE\OPENGL\GAME.CPP
/c /IC:\_CODE\OPENGL\PACKAGES\RAPIDJSON.TEMPRELEASE.0.0.2.20\BUILD\NATIVE\../..//BUILD/NATIVE/INCLUDE/ /IC:\_CODE\OPENGL\PACKAGES\RAPIDJSON.TEMPRELEASE.0.0.2.20\BUILD\NATIVE\../../BUILD/NATIVE/INCLUDE/ /IC:\_CODE\OPENGL\PACKAGES\RAPIDJSON.1.0.2\BUILD\NATIVE\../..//BUILD/NATIVE/INCLUDE/ /I.\INCLUDE /ZI /nologo /W3 /WX- /diagnostics:classic /sdl- /Od /Oy- /D _MBCS /Gm- /EHsc /RTC1 /MDd /GS /fp:precise /Zc:wchar_t /Zc:forScope /Zc:inline /Fo"DEBUG\\" /Fd"DEBUG\VC141.PDB" /Gd /TP /analyze- /FC C:\_CODE\OPENGL\GAME.CPP
^C:\_CODE\OPENGL\MESH.CPP
/c /IC:\_CODE\OPENGL\PACKAGES\RAPIDJSON.TEMPRELEASE.0.0.2.20\BUILD\NATIVE\../..//BUILD/NATIVE/INCLUDE/ /IC:\_CODE\OPENGL\PACKAGES\RAPIDJSON.TEMPRELEASE.0.0.2.20\BUILD\NATIVE\../../BUILD/NATIVE/INCLUDE/ /IC:\_CODE\OPENGL\PACKAGES\RAPIDJSON.1.0.2\BUILD\NATIVE\../..//BUILD/NATIVE/INCLUDE/ /I.\INCLUDE /ZI /nologo /W3 /WX- /diagnostics:classic /sdl- /Od /Oy- /D _MBCS /Gm- /EHsc /RTC1 /MDd /GS /fp:precise /Zc:wchar_t /Zc:forScope /Zc:inline /Fo"DEBUG\\" /Fd"DEBUG\VC141.PDB" /Gd /TP /analyze- /FC C:\_CODE\OPENGL\MESH.CPP
^C:\_CODE\OPENGL\TEXTURE.CPP
/c /IC:\_CODE\OPENGL\PACKAGES\RAPIDJSON.TEMPRELEASE.0.0.2.20\BUILD\NATIVE\../..//BUILD/NATIVE/INCLUDE/ /IC:\_CODE\OPENGL\PACKAGES\RAPIDJSON.TEMPRELEASE.0.0.2.20\BUILD\NATIVE\../../BUILD/NATIVE/INCLUDE/ /IC:\_CODE\OPENGL\PACKAGES\RAPIDJSON.1.0.2\BUILD\NATIVE\../..//BUILD/NATIVE/INCLUDE/ /I.\INCLUDE /ZI /nologo /W3 /WX- /diagnostics:classic /sdl- /Od /Oy- /D _MBCS /Gm- /EHsc /RTC1 /MDd /GS /fp:precise /Zc:wchar_t /Zc:forScope /Zc:inline /Fo"DEBUG\\" /Fd"DEBUG\VC141.PDB" /Gd /TP /analyze- /FC C:\_CODE\OPENGL\TEXTURE.CPP
^C:\_CODE\OPENGL\STB_IMAGE.C
/c /IC:\_CODE\OPENGL\PACKAGES\RAPIDJSON.TEMPRELEASE.0.0.2.20\BUILD\NATIVE\../..//BUILD/NATIVE/INCLUDE/ /IC:\_CODE\OPENGL\PACKAGES\RAPIDJSON.TEMPRELEASE.0.0.2.20\BUILD\NATIVE\../../BUILD/NATIVE/INCLUDE/ /IC:\_CODE\OPENGL\PACKAGES\RAPIDJSON.1.0.2\BUILD\NATIVE\../..//BUILD/NATIVE/INCLUDE/ /I.\INCLUDE /ZI /nologo /W3 /WX- /diagnostics:classic /sdl- /Od /Oy- /D _MBCS /Gm- /EHsc /RTC1 /MDd /GS /fp:precise /Zc:wchar_t /Zc:forScope /Zc:inline /Fo"DEBUG\\" /Fd"DEBUG\VC141.PDB" /Gd /TC /analyze- /FC C:\_CODE\OPENGL\STB_IMAGE.C
^C:\_CODE\OPENGL\SHADER.CPP
/c /IC:\_CODE\OPENGL\PACKAGES\RAPIDJSON.TEMPRELEASE.0.0.2.20\BUILD\NATIVE\../..//BUILD/NATIVE/INCLUDE/ /IC:\_CODE\OPENGL\PACKAGES\RAPIDJSON.TEMPRELEASE.0.0.2.20\BUILD\NATIVE\../../BUILD/NATIVE/INCLUDE/ /IC:\_CODE\OPENGL\PACKAGES\RAPIDJSON.1.0.2\BUILD\NATIVE\../..//BUILD/NATIVE/INCLUDE/ /I.\INCLUDE /ZI /nologo /W3 /WX- /diagnostics:classic /sdl- /Od /Oy- /D _MBCS /Gm- /EHsc /RTC1 /MDd /GS /fp:precise /Zc:wchar_t /Zc:forScope /Zc:inline /Fo"DEBUG\\" /Fd"DEBUG\VC141.PDB" /Gd /TP /analyze- /FC C:\_CODE\OPENGL\SHADER.CPP
^C:\_CODE\OPENGL\MAIN.CPP
/c /IC:\_CODE\OPENGL\PACKAGES\RAPIDJSON.TEMPRELEASE.0.0.2.20\BUILD\NATIVE\../..//BUILD/NATIVE/INCLUDE/ /IC:\_CODE\OPENGL\PACKAGES\RAPIDJSON.TEMPRELEASE.0.0.2.20\BUILD\NATIVE\../../BUILD/NATIVE/INCLUDE/ /IC:\_CODE\OPENGL\PACKAGES\RAPIDJSON.1.0.2\BUILD\NATIVE\../..//BUILD/NATIVE/INCLUDE/ /I.\INCLUDE /ZI /nologo /W3 /WX- /diagnostics:classic /sdl- /Od /Oy- /D _MBCS /Gm- /EHsc /RTC1 /MDd /GS /fp:precise /Zc:wchar_t /Zc:forScope /Zc:inline /Fo"DEBUG\\" /Fd"DEBUG\VC141.PDB" /Gd /TP /analyze- /FC C:\_CODE\OPENGL\MAIN.CPP
^C:\_CODE\OPENGL\PREFAB.CPP
/c /IC:\_CODE\OPENGL\PACKAGES\RAPIDJSON.TEMPRELEASE.0.0.2.20\BUILD\NATIVE\../..//BUILD/NATIVE/INCLUDE/ /IC:\_CODE\OPENGL\PACKAGES\RAPIDJSON.TEMPRELEASE.0.0.2.20\BUILD\NATIVE\../../BUILD/NATIVE/INCLUDE/ /IC:\_CODE\OPENGL\PACKAGES\RAPIDJSON.1.0.2\BUILD\NATIVE\../..//BUILD/NATIVE/INCLUDE/ /I.\INCLUDE /ZI /nologo /W3 /WX- /diagnostics:classic /sdl- /Od /Oy- /D _MBCS /Gm- /EHsc /RTC1 /MDd /GS /fp:precise /Zc:wchar_t /Zc:forScope /Zc:inline /Fo"DEBUG\\" /Fd"DEBUG\VC141.PDB" /Gd /TP /analyze- /FC C:\_CODE\OPENGL\PREFAB.CPP
^C:\_CODE\OPENGL\GAMEOBJECT.CPP
/c /IC:\_CODE\OPENGL\PACKAGES\RAPIDJSON.TEMPRELEASE.0.0.2.20\BUILD\NATIVE\../..//BUILD/NATIVE/INCLUDE/ /IC:\_CODE\OPENGL\PACKAGES\RAPIDJSON.TEMPRELEASE.0.0.2.20\BUILD\NATIVE\../../BUILD/NATIVE/INCLUDE/ /IC:\_CODE\OPENGL\PACKAGES\RAPIDJSON.1.0.2\BUILD\NATIVE\../..//BUILD/NATIVE/INCLUDE/ /I.\INCLUDE /ZI /nologo /W3 /WX- /diagnostics:classic /sdl- /Od /Oy- /D _MBCS /Gm- /EHsc /RTC1 /MDd /GS /fp:precise /Zc:wchar_t /Zc:forScope /Zc:inline /Fo"DEBUG\\" /Fd"DEBUG\VC141.PDB" /Gd /TP /analyze- /FC C:\_CODE\OPENGL\GAMEOBJECT.CPP
^C:\_CODE\GAMEENGINE\OPENGL\DISPLAY.CPP
/c /IC:\_CODE\GAMEENGINE\OPENGL\PACKAGES\FREETYPE.2.8.0.1\BUILD\NATIVE\../..//BUILD/NATIVE/INCLUDE/ /IC:\_CODE\GAMEENGINE\OPENGL\PACKAGES\RAPIDJSON.TEMPRELEASE.0.0.2.20\BUILD\NATIVE\../..//BUILD/NATIVE/INCLUDE/ /IC:\_CODE\GAMEENGINE\OPENGL\PACKAGES\RAPIDJSON.TEMPRELEASE.0.0.2.20\BUILD\NATIVE\../../BUILD/NATIVE/INCLUDE/ /IC:\_CODE\GAMEENGINE\OPENGL\PACKAGES\RAPIDJSON.1.0.2\BUILD\NATIVE\../..//BUILD/NATIVE/INCLUDE/ /I.\INCLUDE /ZI /nologo /W3 /WX- /diagnostics:classic /sdl- /Od /Oy- /D HAS_FREETYPE /D _MBCS /Gm- /EHsc /RTC1 /MDd /GS /fp:precise /Zc:wchar_t /Zc:forScope /Zc:inline /Fo"DEBUG\\" /Fd"DEBUG\VC141.PDB" /Gd /TP /analyze- /FC C:\_CODE\GAMEENGINE\OPENGL\DISPLAY.CPP
^C:\_CODE\GAMEENGINE\OPENGL\MESH.CPP
/c /IC:\_CODE\GAMEENGINE\OPENGL\PACKAGES\FREETYPE.2.8.0.1\BUILD\NATIVE\../..//BUILD/NATIVE/INCLUDE/ /IC:\_CODE\GAMEENGINE\OPENGL\PACKAGES\RAPIDJSON.TEMPRELEASE.0.0.2.20\BUILD\NATIVE\../..//BUILD/NATIVE/INCLUDE/ /IC:\_CODE\GAMEENGINE\OPENGL\PACKAGES\RAPIDJSON.TEMPRELEASE.0.0.2.20\BUILD\NATIVE\../../BUILD/NATIVE/INCLUDE/ /IC:\_CODE\GAMEENGINE\OPENGL\PACKAGES\RAPIDJSON.1.0.2\BUILD\NATIVE\../..//BUILD/NATIVE/INCLUDE/ /I.\INCLUDE /ZI /nologo /W3 /WX- /diagnostics:classic /sdl- /Od /Oy- /D HAS_FREETYPE /D _MBCS /Gm- /EHsc /RTC1 /MDd /GS /fp:precise /Zc:wchar_t /Zc:forScope /Zc:inline /Fo"DEBUG\\" /Fd"DEBUG\VC141.PDB" /Gd /TP /analyze- /FC C:\_CODE\GAMEENGINE\OPENGL\MESH.CPP
^C:\_CODE\GAMEENGINE\OPENGL\STB_IMAGE.C
/c /IC:\_CODE\GAMEENGINE\OPENGL\PACKAGES\FREETYPE.2.8.0.1\BUILD\NATIVE\../..//BUILD/NATIVE/INCLUDE/ /IC:\_CODE\GAMEENGINE\OPENGL\PACKAGES\RAPIDJSON.TEMPRELEASE.0.0.2.20\BUILD\NATIVE\../..//BUILD/NATIVE/INCLUDE/ /IC:\_CODE\GAMEENGINE\OPENGL\PACKAGES\RAPIDJSON.TEMPRELEASE.0.0.2.20\BUILD\NATIVE\../../BUILD/NATIVE/INCLUDE/ /IC:\_CODE\GAMEENGINE\OPENGL\PACKAGES\RAPIDJSON.1.0.2\BUILD\NATIVE\../..//BUILD/NATIVE/INCLUDE/ /I.\INCLUDE /ZI /nologo /W3 /WX- /diagnostics:classic /sdl- /Od /Oy- /D HAS_FREETYPE /D _MBCS /Gm- /EHsc /RTC1 /MDd /GS /fp:precise /Zc:wchar_t /Zc:forScope /Zc:inline /Fo"DEBUG\\" /Fd"DEBUG\VC141.PDB" /Gd /TC /analyze- /FC C:\_CODE\GAMEENGINE\OPENGL\STB_IMAGE.C
^C:\_CODE\GAMEENGINE\OPENGL\PREFAB.CPP
/c /IC:\_CODE\GAMEENGINE\OPENGL\PACKAGES\FREETYPE.2.8.0.1\BUILD\NATIVE\../..//BUILD/NATIVE/INCLUDE/ /IC:\_CODE\GAMEENGINE\OPENGL\PACKAGES\RAPIDJSON.TEMPRELEASE.0.0.2.20\BUILD\NATIVE\../..//BUILD/NATIVE/INCLUDE/ /IC:\_CODE\GAMEENGINE\OPENGL\PACKAGES\RAPIDJSON.TEMPRELEASE.0.0.2.20\BUILD\NATIVE\../../BUILD/NATIVE/INCLUDE/ /IC:\_CODE\GAMEENGINE\OPENGL\PACKAGES\RAPIDJSON.1.0.2\BUILD\NATIVE\../..//BUILD/NATIVE/INCLUDE/ /I.\INCLUDE /ZI /nologo /W3 /WX- /diagnostics:classic /sdl- /Od /Oy- /D HAS_FREETYPE /D _MBCS /Gm- /EHsc /RTC1 /MDd /GS /fp:precise /Zc:wchar_t /Zc:forScope /Zc:inline /Fo"DEBUG\\" /Fd"DEBUG\VC141.PDB" /Gd /TP /analyze- /FC C:\_CODE\GAMEENGINE\OPENGL\PREFAB.CPP
^C:\_CODE\GAMEENGINE\OPENGL\SHADER.CPP
/c /IC:\_CODE\GAMEENGINE\OPENGL\PACKAGES\FREETYPE.2.8.0.1\BUILD\NATIVE\../..//BUILD/NATIVE/INCLUDE/ /IC:\_CODE\GAMEENGINE\OPENGL\PACKAGES\RAPIDJSON.TEMPRELEASE.0.0.2.20\BUILD\NATIVE\../..//BUILD/NATIVE/INCLUDE/ /IC:\_CODE\GAMEENGINE\OPENGL\PACKAGES\RAPIDJSON.TEMPRELEASE.0.0.2.20\BUILD\NATIVE\../../BUILD/NATIVE/INCLUDE/ /IC:\_CODE\GAMEENGINE\OPENGL\PACKAGES\RAPIDJSON.1.0.2\BUILD\NATIVE\../..//BUILD/NATIVE/INCLUDE/ /I.\INCLUDE /ZI /nologo /W3 /WX- /diagnostics:classic /sdl- /Od /Oy- /D HAS_FREETYPE /D _MBCS /Gm- /EHsc /RTC1 /MDd /GS /fp:precise /Zc:wchar_t /Zc:forScope /Zc:inline /Fo"DEBUG\\" /Fd"DEBUG\VC141.PDB" /Gd /TP /analyze- /FC C:\_CODE\GAMEENGINE\OPENGL\SHADER.CPP
^C:\_CODE\GAMEENGINE\OPENGL\TEXTURE.CPP
/c /IC:\_CODE\GAMEENGINE\OPENGL\PACKAGES\FREETYPE.2.8.0.1\BUILD\NATIVE\../..//BUILD/NATIVE/INCLUDE/ /IC:\_CODE\GAMEENGINE\OPENGL\PACKAGES\RAPIDJSON.TEMPRELEASE.0.0.2.20\BUILD\NATIVE\../..//BUILD/NATIVE/INCLUDE/ /IC:\_CODE\GAMEENGINE\OPENGL\PACKAGES\RAPIDJSON.TEMPRELEASE.0.0.2.20\BUILD\NATIVE\../../BUILD/NATIVE/INCLUDE/ /IC:\_CODE\GAMEENGINE\OPENGL\PACKAGES\RAPIDJSON.1.0.2\BUILD\NATIVE\../..//BUILD/NATIVE/INCLUDE/ /I.\INCLUDE /ZI /nologo /W3 /WX- /diagnostics:classic /sdl- /Od /Oy- /D HAS_FREETYPE /D _MBCS /Gm- /EHsc /RTC1 /MDd /GS /fp:precise /Zc:wchar_t /Zc:forScope /Zc:inline /Fo"DEBUG\\" /Fd"DEBUG\VC141.PDB" /Gd /TP /analyze- /FC C:\_CODE\GAMEENGINE\OPENGL\TEXTURE.CPP
^C:\_CODE\GAMEENGINE\OPENGL\GAMEOBJECT.CPP
/c /IC:\_CODE\GAMEENGINE\OPENGL\PACKAGES\FREETYPE.2.8.0.1\BUILD\NATIVE\../..//BUILD/NATIVE/INCLUDE/ /IC:\_CODE\GAMEENGINE\OPENGL\PACKAGES\RAPIDJSON.TEMPRELEASE.0.0.2.20\BUILD\NATIVE\../..//BUILD/NATIVE/INCLUDE/ /IC:\_CODE\GAMEENGINE\OPENGL\PACKAGES\RAPIDJSON.TEMPRELEASE.0.0.2.20\BUILD\NATIVE\../../BUILD/NATIVE/INCLUDE/ /IC:\_CODE\GAMEENGINE\OPENGL\PACKAGES\RAPIDJSON.1.0.2\BUILD\NATIVE\../..//BUILD/NATIVE/INCLUDE/ /I.\INCLUDE /ZI /nologo /W3 /WX- /diagnostics:classic /sdl- /Od /Oy- /D HAS_FREETYPE /D _MBCS /Gm- /EHsc /RTC1 /MDd /GS /fp:precise /Zc:wchar_t /Zc:forScope /Zc:inline /Fo"DEBUG\\" /Fd"DEBUG\VC141.PDB" /Gd /TP /analyze- /FC C:\_CODE\GAMEENGINE\OPENGL\GAMEOBJECT.CPP
^C:\_CODE\GAMEENGINE\OPENGL\MAIN.CPP
/c /IC:\_CODE\GAMEENGINE\OPENGL\PACKAGES\FREETYPE.2.8.0.1\BUILD\NATIVE\../..//BUILD/NATIVE/INCLUDE/ /IC:\_CODE\GAMEENGINE\OPENGL\PACKAGES\RAPIDJSON.TEMPRELEASE.0.0.2.20\BUILD\NATIVE\../..//BUILD/NATIVE/INCLUDE/ /IC:\_CODE\GAMEENGINE\OPENGL\PACKAGES\RAPIDJSON.TEMPRELEASE.0.0.2.20\BUILD\NATIVE\../../BUILD/NATIVE/INCLUDE/ /IC:\_CODE\GAMEENGINE\OPENGL\PACKAGES\RAPIDJSON.1.0.2\BUILD\NATIVE\../..//BUILD/NATIVE/INCLUDE/ /I.\INCLUDE /ZI /nologo /W3 /WX- /diagnostics:classic /sdl- /Od /Oy- /D HAS_FREETYPE /D _MBCS /Gm- /EHsc /RTC1 /MDd /GS /fp:precise /Zc:wchar_t /Zc:forScope /Zc:inline /Fo"DEBUG\\" /Fd"DEBUG\VC141.PDB" /Gd /TP /analyze- /FC C:\_CODE\GAMEENGINE\OPENGL\MAIN.CPP
^C:\_CODE\GAMEENGINE\OPENGL\RENDERER.CPP
/c /IC:\_CODE\GAMEENGINE\OPENGL\PACKAGES\FREETYPE.2.8.0.1\BUILD\NATIVE\../..//BUILD/NATIVE/INCLUDE/ /IC:\_CODE\GAMEENGINE\OPENGL\PACKAGES\RAPIDJSON.TEMPRELEASE.0.0.2.20\BUILD\NATIVE\../..//BUILD/NATIVE/INCLUDE/ /IC:\_CODE\GAMEENGINE\OPENGL\PACKAGES\RAPIDJSON.TEMPRELEASE.0.0.2.20\BUILD\NATIVE\../../BUILD/NATIVE/INCLUDE/ /IC:\_CODE\GAMEENGINE\OPENGL\PACKAGES\RAPIDJSON.1.0.2\BUILD\NATIVE\../..//BUILD/NATIVE/INCLUDE/ /I.\INCLUDE /ZI /nologo /W3 /WX- /diagnostics:classic /sdl- /Od /Oy- /D HAS_FREETYPE /D _MBCS /Gm- /EHsc /RTC1 /MDd /GS /fp:precise /Zc:wchar_t /Zc:forScope /Zc:inline /Fo"DEBUG\\" /Fd"DEBUG\VC141.PDB" /Gd /TP /analyze- /FC C:\_CODE\GAMEENGINE\OPENGL\RENDERER.CPP
^C:\_CODE\GAMEENGINE\OPENGL\GAME.CPP
/c /IC:\_CODE\GAMEENGINE\OPENGL\PACKAGES\FREETYPE.2.8.0.1\BUILD\NATIVE\../..//BUILD/NATIVE/INCLUDE/ /IC:\_CODE\GAMEENGINE\OPENGL\PACKAGES\RAPIDJSON.TEMPRELEASE.0.0.2.20\BUILD\NATIVE\../..//BUILD/NATIVE/INCLUDE/ /IC:\_CODE\GAMEENGINE\OPENGL\PACKAGES\RAPIDJSON.TEMPRELEASE.0.0.2.20\BUILD\NATIVE\../../BUILD/NATIVE/INCLUDE/ /IC:\_CODE\GAMEENGINE\OPENGL\PACKAGES\RAPIDJSON.1.0.2\BUILD\NATIVE\../..//BUILD/NATIVE/INCLUDE/ /I.\INCLUDE /ZI /nologo /W3 /WX- /diagnostics:classic /sdl- /Od /Oy- /D HAS_FREETYPE /D _MBCS /Gm- /EHsc /RTC1 /MDd /GS /fp:precise /Zc:wchar_t /Zc:forScope /Zc:inline /Fo"DEBUG\\" /Fd"DEBUG\VC141.PDB" /Gd /TP /analyze- /FC C:\_CODE\GAMEENGINE\OPENGL\GAME.CPP
^C:\_CODE\GAMEENGINE\OPENGL\TEXT.CPP
/c /IC:\_CODE\GAMEENGINE\OPENGL\PACKAGES\FREETYPE.2.8.0.1\BUILD\NATIVE\../..//BUILD/NATIVE/INCLUDE/ /IC:\_CODE\GAMEENGINE\OPENGL\PACKAGES\RAPIDJSON.TEMPRELEASE.0.0.2.20\BUILD\NATIVE\../..//BUILD/NATIVE/INCLUDE/ /IC:\_CODE\GAMEENGINE\OPENGL\PACKAGES\RAPIDJSON.TEMPRELEASE.0.0.2.20\BUILD\NATIVE\../../BUILD/NATIVE/INCLUDE/ /IC:\_CODE\GAMEENGINE\OPENGL\PACKAGES\RAPIDJSON.1.0.2\BUILD\NATIVE\../..//BUILD/NATIVE/INCLUDE/ /I.\INCLUDE /ZI /nologo /W3 /WX- /diagnostics:classic /sdl- /Od /Oy- /D HAS_FREETYPE /D _MBCS /Gm- /EHsc /RTC1 /MDd /GS /fp:precise /Zc:wchar_t /Zc:forScope /Zc:inline /Fo"DEBUG\\" /Fd"DEBUG\VC141.PDB" /Gd /TP /analyze- /FC C:\_CODE\GAMEENGINE\OPENGL\TEXT.CPP
